[gd_scene load_steps=3 format=2]

[ext_resource path="res://player.gd" type="Script" id=1]

[sub_resource type="BoxShape" id=1]
extents = Vector3( 0.5, 0.75, 0.5 )

[node name="Player" type="KinematicBody"]
script = ExtResource( 1 )

[node name="CollisionShape" type="CollisionShape" parent="."]
transform = Transform( 1, 0, 0, 0, 1, 0, 0, 0, 1, 0, 0.75, 0 )
shape = SubResource( 1 )

[node name="Head" type="Spatial" parent="."]
transform = Transform( 1, 0, 0, 0, 1, 0, 0, 0, 1, 0, 1, 0 )

[node name="Camera" type="Camera" parent="Head"]
fov = 90.0
